^D:\1\CONSOLEAPPLICATION3\CONSOLEAPPLICATION3\DEBUG\CONSOLEAPPLICATION3.OBJ
D:\1\CONSOLEAPPLICATION3\DEBUG\CONSOLEAPPLICATION3.ILK
D:\1\CONSOLEAPPLICATION3\DEBUG\CONSOLEAPPLICATION3.EXE
D:\1\CONSOLEAPPLICATION3\DEBUG\CONSOLEAPPLICATION3.PDB
